[
  {
    "no" : 1,
    "code" : "T001",
    "detail" : "นั่งงอตัวไปข้างหน้า",
    "detail2" : "-",
    "status" : "ใช้งาน"
  },
  {
    "no" : 2,
    "code" : "T002",
    "detail" : "งอแขนยกน้ำหนัก",
    "detail2" : "-",
    "status" : "ใช้งาน"
  },
  {
    "no" : 3,
    "code" : "T003",
    "detail" : "วิ่งเร็ว",
    "detail2" : "-",
    "status" : "ใช้งาน"
  },
  {
    "no" : 4,
    "code" : "T004",
    "detail" : "แรงบีบมือ",
    "detail2" : "-",
    "status" : "ใช้งาน"
  },
  {
    "no" : 5,
    "code" : "T005",
    "detail" : "ลุก-นั่ง",
    "detail2" : "-",
    "status" : "ใช้งาน"
  },
  {
    "no" : 6,
    "code" : "T006",
    "detail" : "ความอ่อนตัว",
    "detail2" : "-",
    "status" : "ใช้งาน"
  }
]
